{"photos":{"page":1,"pages":6708,"perpage":100,"total":"670755","photo":[{"id":"16503924678","owner":"81039478@N03","secret":"e954abc95e","server":"8655","farm":9,"title":"Drive Massive Traffic","ispublic":1,"isfriend":0,"isfamily":0},{"id":"16482273517","owner":"42758436@N05","secret":"5a9e2834a4","server":"8625","farm":9,"title":"Tree-stump orb web spider (Cyphalonotus sp.) - DSC_2432","ispublic":1,"isfriend":0,"isfamily":0},{"id":"16665382826","owner":"126684608@N05","secret":"d233e5090e","server":"8647","farm":9,"title":"Amazon Web Services Users Email Addresses","ispublic":1,"isfriend":0,"isfamily":0},{"id":"16068820674","owner":"129519672@N02","secret":"3fcb42cc9a","server":"8561","farm":9,"title":"Remember, don't be anyone other than who YOU are, even on #Socialmedia. People can always tell who is faking. #WeblinkindiaTips #MondayMornings","ispublic":1,"isfriend":0,"isfamily":0},{"id":"16503559228","owner":"129519672@N02","secret":"10ddbb8500","server":"8608","farm":9,"title":"You have to ask yourself...do you want more problems or more opportunities? #MotivationalQuotes #InspiringQuotes #MondayMornings","ispublic":1,"isfriend":0,"isfamily":0},{"id":"16689882992","owner":"7695814@N04","secret":"3796662f23","server":"8635","farm":9,"title":"SpiderCatch","ispublic":1,"isfriend":0,"isfamily":0},{"id":"16503287800","owner":"87537477@N08","secret":"e2c71a0656","server":"8607","farm":9,"title":"The little things around us","ispublic":1,"isfriend":0,"isfamily":0},{"id":"16502792328","owner":"118572094@N04","secret":"157e6cd132","server":"8643","farm":9,"title":"New UX-UI Design - March 02, 2015 at 04:48AM","ispublic":1,"isfriend":0,"isfamily":0},{"id":"16502846320","owner":"124628119@N07","secret":"f3c76d9b96","server":"8620","farm":9,"title":"Tela de ara\u00f1a","ispublic":1,"isfriend":0,"isfamily":0},{"id":"16502159040","owner":"42758436@N05","secret":"1481a774e3","server":"8567","farm":9,"title":"Tree-stump orb web spider (Cyphalonotus sp.) - DSC_2426","ispublic":1,"isfriend":0,"isfamily":0},{"id":"16067224244","owner":"42758436@N05","secret":"d842b15be9","server":"8583","farm":9,"title":"Tree-stump orb web spider (Cyphalonotus sp.) - DSC_2420","ispublic":1,"isfriend":0,"isfamily":0},{"id":"16067223934","owner":"42758436@N05","secret":"60b287e1e5","server":"8604","farm":9,"title":"Tree-stump orb web spider (Cyphalonotus sp.) - DSC_2451","ispublic":1,"isfriend":0,"isfamily":0},{"id":"16482273467","owner":"42758436@N05","secret":"b21707e23e","server":"8636","farm":9,"title":"Tree-stump orb web spider (Cyphalonotus sp.) - DSC_2434","ispublic":1,"isfriend":0,"isfamily":0},{"id":"16482273337","owner":"42758436@N05","secret":"c5277896b0","server":"8568","farm":9,"title":"Tree-stump orb web spider (Cyphalonotus sp.) - DSC_2456","ispublic":1,"isfriend":0,"isfamily":0},{"id":"16501962218","owner":"42758436@N05","secret":"801d8aee01","server":"8665","farm":9,"title":"Tree-stump orb web spider (Cyphalonotus sp.) - DSC_2462","ispublic":1,"isfriend":0,"isfamily":0},{"id":"16688522892","owner":"42758436@N05","secret":"32d08a72e2","server":"8633","farm":9,"title":"Tree-stump orb web spider (Cyphalonotus sp.) - DSC_2474","ispublic":1,"isfriend":0,"isfamily":0},{"id":"16690032435","owner":"76843175@N05","secret":"a617ba09f5","server":"8653","farm":9,"title":"Tent Caterpillar Web","ispublic":1,"isfriend":0,"isfamily":0},{"id":"16067596064","owner":"54384860@N04","secret":"fc4665d41d","server":"8615","farm":9,"title":"February 2015_0014","ispublic":1,"isfriend":0,"isfamily":0},{"id":"16067595584","owner":"54384860@N04","secret":"882c93b124","server":"8627","farm":9,"title":"February 2015_0013","ispublic":1,"isfriend":0,"isfamily":0},{"id":"16688062891","owner":"128882565@N06","secret":"d74b83a8a5","server":"8661","farm":9,"title":"55\/365 Wont Let Go","ispublic":1,"isfriend":0,"isfamily":0},{"id":"16687531832","owner":"76641471@N03","secret":"2521419d16","server":"8602","farm":9,"title":"Webs","ispublic":1,"isfriend":0,"isfamily":0},{"id":"16687349922","owner":"130853848@N07","secret":"ca1d9def0d","server":"8619","farm":9,"title":"D70_1635","ispublic":1,"isfriend":0,"isfamily":0},{"id":"16502233129","owner":"130853848@N07","secret":"2eb8666738","server":"8677","farm":9,"title":"D70_1634","ispublic":1,"isfriend":0,"isfamily":0},{"id":"16066034444","owner":"130853848@N07","secret":"4dccfa14c3","server":"8640","farm":9,"title":"D70_1632","ispublic":1,"isfriend":0,"isfamily":0},{"id":"16688222535","owner":"62181222@N08","secret":"f0cd3c2d1d","server":"8650","farm":9,"title":"Spider-girl (Mayday Parker)","ispublic":1,"isfriend":0,"isfamily":0},{"id":"16500631888","owner":"62181222@N08","secret":"6da4472dc6","server":"8643","farm":9,"title":"Spider-girl (Mayday Parker)","ispublic":1,"isfriend":0,"isfamily":0},{"id":"16686884811","owner":"62181222@N08","secret":"4a4d36f79b","server":"8622","farm":9,"title":"Spider-girl (Mayday Parker)","ispublic":1,"isfriend":0,"isfamily":0},{"id":"16500280040","owner":"107551465@N07","secret":"147a11ebeb","server":"8654","farm":9,"title":"Vacated.  2.28.15","ispublic":1,"isfriend":0,"isfamily":0},{"id":"16501305999","owner":"129952646@N08","secret":"59df4472d5","server":"8670","farm":9,"title":"","ispublic":1,"isfriend":0,"isfamily":0},{"id":"16479223827","owner":"115039395@N06","secret":"00789bd05c","server":"8637","farm":9,"title":"Deception","ispublic":1,"isfriend":0,"isfamily":0},{"id":"16659423186","owner":"12265217@N07","secret":"68b081c683","server":"8647","farm":9,"title":"Canvasback and Redhead Ducks","ispublic":1,"isfriend":0,"isfamily":0},{"id":"16478034957","owner":"118572094@N04","secret":"5c49484fb7","server":"8682","farm":9,"title":"New UX-UI Design - March 01, 2015 at 07:12PM","ispublic":1,"isfriend":0,"isfamily":0},{"id":"16390890499","owner":"40036489@N00","secret":"e863ea9075","server":"7301","farm":8,"title":"Rote Bollerh\u00fcte  und rot-braune  Z\u00f6pfe :  Schwarzwaldm\u00e4del aus Dettensee . Red Boll hats and red-brown braids: \"Black Forest Girls\"  from Dettensee","ispublic":1,"isfriend":0,"isfamily":0},{"id":"16497602448","owner":"50283852@N06","secret":"844a6223ca","server":"8609","farm":9,"title":"Spider","ispublic":1,"isfriend":0,"isfamily":0},{"id":"16684096142","owner":"126776524@N02","secret":"eebea14115","server":"8673","farm":9,"title":"Long bow","ispublic":1,"isfriend":0,"isfamily":0},{"id":"16065028953","owner":"126358332@N06","secret":"53f1e2a5b9","server":"8602","farm":9,"title":"web","ispublic":1,"isfriend":0,"isfamily":0},{"id":"16683349661","owner":"8030263@N02","secret":"1c28f70e77","server":"8666","farm":9,"title":"#13 Web","ispublic":1,"isfriend":0,"isfamily":0},{"id":"16064203733","owner":"130592555@N04","secret":"0d712f66a6","server":"8625","farm":9,"title":"Thistle","ispublic":1,"isfriend":0,"isfamily":0},{"id":"16497796809","owner":"78112161@N00","secret":"a6564ac58e","server":"8585","farm":9,"title":"P1040636","ispublic":1,"isfriend":0,"isfamily":0},{"id":"16063958233","owner":"47075890@N03","secret":"4e6c39baf7","server":"8612","farm":9,"title":"Click 'Like' if you are as excited for this holiday as we are! | NATIONAL PEANUT BUTTER LOVER\u2019S DAY - March 1 - #peanutbutterlover #march #completemedia http:\/\/modo.ly\/1Gp7wZ7","ispublic":1,"isfriend":0,"isfamily":0},{"id":"16061372464","owner":"13232346@N00","secret":"66d9444f0a","server":"8596","farm":9,"title":"Western Greyhound.com","ispublic":1,"isfriend":0,"isfamily":0},{"id":"16682629662","owner":"128926351@N02","secret":"d20b88d71a","server":"8565","farm":9,"title":"Spiders","ispublic":1,"isfriend":0,"isfamily":0},{"id":"16464185239","owner":"42758436@N05","secret":"8e583c217f","server":"8582","farm":9,"title":"Golden orb web spider (Nephila antipodiana) - DSC_1915","ispublic":1,"isfriend":0,"isfamily":0},{"id":"16624423336","owner":"42758436@N05","secret":"c73395ae4a","server":"8641","farm":9,"title":"Tent web spider (Cyrtophora beccarii) - DSC_2061","ispublic":1,"isfriend":0,"isfamily":0},{"id":"16681681312","owner":"126873700@N02","secret":"2771a33a03","server":"8666","farm":9,"title":"Snowy spider web","ispublic":1,"isfriend":0,"isfamily":0},{"id":"16060057144","owner":"129913137@N07","secret":"2dd6a80fc4","server":"8585","farm":9,"title":"Flowery Dew","ispublic":1,"isfriend":0,"isfamily":0},{"id":"16062440143","owner":"118572094@N04","secret":"7e7b19f420","server":"8679","farm":9,"title":"New UX-UI Design - March 01, 2015 at 02:24PM","ispublic":1,"isfriend":0,"isfamily":0},{"id":"16062026013","owner":"60432733@N05","secret":"eb8d917dd9","server":"8580","farm":9,"title":"Grammostola Pulchripes","ispublic":1,"isfriend":0,"isfamily":0},{"id":"16681809845","owner":"60119851@N08","secret":"32fe766f4a","server":"8624","farm":9,"title":"Rendering","ispublic":1,"isfriend":0,"isfamily":0},{"id":"16495667029","owner":"60119851@N08","secret":"c7ddf7eca0","server":"8611","farm":9,"title":"Rendering","ispublic":1,"isfriend":0,"isfamily":0},{"id":"16680799372","owner":"60119851@N08","secret":"96d7408a94","server":"8568","farm":9,"title":"Rendering","ispublic":1,"isfriend":0,"isfamily":0},{"id":"16680798512","owner":"60119851@N08","secret":"852a832383","server":"8683","farm":9,"title":"Rendering","ispublic":1,"isfriend":0,"isfamily":0},{"id":"16061860233","owner":"60119851@N08","secret":"bf6c8b1300","server":"8666","farm":9,"title":"Rendering","ispublic":1,"isfriend":0,"isfamily":0},{"id":"16655867056","owner":"60119851@N08","secret":"468d534bb6","server":"8637","farm":9,"title":"Rendering","ispublic":1,"isfriend":0,"isfamily":0},{"id":"16680796032","owner":"60119851@N08","secret":"197d5213b0","server":"8632","farm":9,"title":"Rendering","ispublic":1,"isfriend":0,"isfamily":0},{"id":"16474517857","owner":"60119851@N08","secret":"0dc3566535","server":"8664","farm":9,"title":"Rendering","ispublic":1,"isfriend":0,"isfamily":0},{"id":"16474516957","owner":"60119851@N08","secret":"d98618f377","server":"8630","farm":9,"title":"Rendering","ispublic":1,"isfriend":0,"isfamily":0},{"id":"16474515937","owner":"60119851@N08","secret":"e80393be85","server":"8680","farm":9,"title":"Rendering","ispublic":1,"isfriend":0,"isfamily":0},{"id":"16059467664","owner":"60119851@N08","secret":"bbee2a3a72","server":"8637","farm":9,"title":"Rendering","ispublic":1,"isfriend":0,"isfamily":0},{"id":"16681800865","owner":"60119851@N08","secret":"d150d0f573","server":"8585","farm":9,"title":"Rendering","ispublic":1,"isfriend":0,"isfamily":0},{"id":"16680446631","owner":"60119851@N08","secret":"05a3d24993","server":"8592","farm":9,"title":"Rendering","ispublic":1,"isfriend":0,"isfamily":0},{"id":"16655860716","owner":"60119851@N08","secret":"58ee2145b4","server":"8653","farm":9,"title":"Rendering","ispublic":1,"isfriend":0,"isfamily":0},{"id":"16059464554","owner":"60119851@N08","secret":"751d85d0f1","server":"8674","farm":9,"title":"Rendering","ispublic":1,"isfriend":0,"isfamily":0},{"id":"16494397950","owner":"60119851@N08","secret":"ecaab0bd21","server":"8658","farm":9,"title":"Rendering","ispublic":1,"isfriend":0,"isfamily":0},{"id":"16494212428","owner":"60119851@N08","secret":"d7af9b3a81","server":"8661","farm":9,"title":"Rendering","ispublic":1,"isfriend":0,"isfamily":0},{"id":"16059461164","owner":"60119851@N08","secret":"6619832ef0","server":"8611","farm":9,"title":"Rendering","ispublic":1,"isfriend":0,"isfamily":0},{"id":"16494210288","owner":"60119851@N08","secret":"b853a2ba5b","server":"8673","farm":9,"title":"Rendering","ispublic":1,"isfriend":0,"isfamily":0},{"id":"16681793225","owner":"60119851@N08","secret":"80c9cffa84","server":"8668","farm":9,"title":"Rendering","ispublic":1,"isfriend":0,"isfamily":0},{"id":"16680439241","owner":"60119851@N08","secret":"245937c947","server":"8572","farm":9,"title":"Rendering","ispublic":1,"isfriend":0,"isfamily":0},{"id":"16680438461","owner":"60119851@N08","secret":"35c9ae8810","server":"8620","farm":9,"title":"Rendering","ispublic":1,"isfriend":0,"isfamily":0},{"id":"16655852236","owner":"60119851@N08","secret":"8939c09afd","server":"8631","farm":9,"title":"Rendering","ispublic":1,"isfriend":0,"isfamily":0},{"id":"16059455684","owner":"60119851@N08","secret":"60778fe43b","server":"8643","farm":9,"title":"Rendering","ispublic":1,"isfriend":0,"isfamily":0},{"id":"16681788635","owner":"60119851@N08","secret":"e1f48f5cb5","server":"8664","farm":9,"title":"Rendering","ispublic":1,"isfriend":0,"isfamily":0},{"id":"16474501487","owner":"60119851@N08","secret":"b8365c5168","server":"8608","farm":9,"title":"Rendering","ispublic":1,"isfriend":0,"isfamily":0},{"id":"16681786735","owner":"60119851@N08","secret":"e1cf89850f","server":"8596","farm":9,"title":"Rendering","ispublic":1,"isfriend":0,"isfamily":0},{"id":"16061839033","owner":"60119851@N08","secret":"ebb9d7e87b","server":"8630","farm":9,"title":"Rendering","ispublic":1,"isfriend":0,"isfamily":0},{"id":"16681785085","owner":"60119851@N08","secret":"373abf973e","server":"8570","farm":9,"title":"Rendering","ispublic":1,"isfriend":0,"isfamily":0},{"id":"16494385210","owner":"60119851@N08","secret":"b092eeb185","server":"8644","farm":9,"title":"Rendering","ispublic":1,"isfriend":0,"isfamily":0},{"id":"16474497197","owner":"60119851@N08","secret":"ffc73f99f3","server":"8592","farm":9,"title":"Rendering","ispublic":1,"isfriend":0,"isfamily":0},{"id":"16494198088","owner":"60119851@N08","secret":"e7761dce75","server":"8613","farm":9,"title":"Rendering","ispublic":1,"isfriend":0,"isfamily":0},{"id":"16061834223","owner":"60119851@N08","secret":"0590cd82d7","server":"8665","farm":9,"title":"Rendering","ispublic":1,"isfriend":0,"isfamily":0},{"id":"16680427531","owner":"60119851@N08","secret":"354e504416","server":"8660","farm":9,"title":"Rendering","ispublic":1,"isfriend":0,"isfamily":0},{"id":"16680769122","owner":"60119851@N08","secret":"16362a0394","server":"8668","farm":9,"title":"Rendering","ispublic":1,"isfriend":0,"isfamily":0},{"id":"16474491947","owner":"60119851@N08","secret":"9282f37681","server":"8660","farm":9,"title":"Rendering","ispublic":1,"isfriend":0,"isfamily":0},{"id":"16494378260","owner":"60119851@N08","secret":"b2d67b14fc","server":"8626","farm":9,"title":"Rendering","ispublic":1,"isfriend":0,"isfamily":0},{"id":"16680765832","owner":"60119851@N08","secret":"2507c80f12","server":"8605","farm":9,"title":"Rendering","ispublic":1,"isfriend":0,"isfamily":0},{"id":"16494376870","owner":"60119851@N08","secret":"302dbf759b","server":"8585","farm":9,"title":"Rendering","ispublic":1,"isfriend":0,"isfamily":0},{"id":"16059440984","owner":"60119851@N08","secret":"f10c0d4a66","server":"8584","farm":9,"title":"Rendering","ispublic":1,"isfriend":0,"isfamily":0},{"id":"16494189288","owner":"60119851@N08","secret":"7107cc828c","server":"8576","farm":9,"title":"Rendering","ispublic":1,"isfriend":0,"isfamily":0},{"id":"16681773005","owner":"60119851@N08","secret":"1a8e3e827f","server":"8645","farm":9,"title":"Rendering","ispublic":1,"isfriend":0,"isfamily":0},{"id":"16059437544","owner":"60119851@N08","secret":"791b9b1fdf","server":"8646","farm":9,"title":"Rendering","ispublic":1,"isfriend":0,"isfamily":0},{"id":"16655796226","owner":"60119851@N08","secret":"1bfb4a78e5","server":"8671","farm":9,"title":"Rendering","ispublic":1,"isfriend":0,"isfamily":0},{"id":"16059399654","owner":"60119851@N08","secret":"4e44efe23c","server":"8616","farm":9,"title":"Rendering","ispublic":1,"isfriend":0,"isfamily":0},{"id":"16474447047","owner":"60119851@N08","secret":"9bd0faa03c","server":"8683","farm":9,"title":"Rendering","ispublic":1,"isfriend":0,"isfamily":0},{"id":"16655793166","owner":"60119851@N08","secret":"c721a55d4d","server":"8561","farm":9,"title":"Rendering","ispublic":1,"isfriend":0,"isfamily":0},{"id":"16680378531","owner":"60119851@N08","secret":"66f508f19e","server":"8643","farm":9,"title":"Rendering","ispublic":1,"isfriend":0,"isfamily":0},{"id":"16061782923","owner":"60119851@N08","secret":"824786b28c","server":"8597","farm":9,"title":"Rendering","ispublic":1,"isfriend":0,"isfamily":0},{"id":"16680377871","owner":"60119851@N08","secret":"6e3b302149","server":"8582","farm":9,"title":"Rendering","ispublic":1,"isfriend":0,"isfamily":0},{"id":"16061782383","owner":"60119851@N08","secret":"ca215b806b","server":"8594","farm":9,"title":"Rendering","ispublic":1,"isfriend":0,"isfamily":0},{"id":"16474443117","owner":"60119851@N08","secret":"d3a3c22f0b","server":"8569","farm":9,"title":"Rendering","ispublic":1,"isfriend":0,"isfamily":0}]},"stat":"ok"}